(export (version D)
  (design
    (source /home/azisi/Documents/SatNOGS/satnogs-rotator-controller-encoder/satnogs_encoder/encoder_as5601/encoder_as5601.sch)
    (date "Wed 12 Feb 2020 18:24:52 EET")
    (tool "Eeschema 5.1.5-52549c5~84~ubuntu18.04.1")
    (sheet (number 1) (name /) (tstamps /)
      (title_block
        (title "AS5601 - Encoder")
        (company "Libre Space Foundation")
        (rev)
        (date 2018-01-21)
        (source encoder_as5601.sch)
        (comment (number 1) (value ""))
        (comment (number 2) (value ""))
        (comment (number 3) (value ""))
        (comment (number 4) (value "")))))
  (components
    (comp (ref U1)
      (value AS5601)
      (footprint Package_SO:SOIC-8_3.9x4.9mm_P1.27mm)
      (datasheet https://ams.com/as5601#tab/features)
      (fields
        (field (name Mnf.) AS5601-ASOM))
      (libsource (lib lsf-kicad) (part AS5601) (description "12-Bit Programmable Contactless Encoder"))
      (sheetpath (names /) (tstamps /))
      (tstamp 5E441480))
    (comp (ref J1)
      (value Conn_02x05_Odd_Even)
      (footprint Connector_PinHeader_2.54mm:PinHeader_2x05_P2.54mm_Vertical)
      (datasheet ~)
      (libsource (lib Connector_Generic) (part Conn_02x05_Odd_Even) (description "Generic connector, double row, 02x05, odd/even pin numbering scheme (row 1 odd numbers, row 2 even numbers), script generated (kicad-library-utils/schlib/autogen/connector/)"))
      (sheetpath (names /) (tstamps /))
      (tstamp 5E470C75))
    (comp (ref Q1)
      (value Q_NMOS_GSD)
      (footprint Package_TO_SOT_SMD:SOT-23_Handsoldering)
      (datasheet ~)
      (fields
        (field (name Mnf.) SI2312CDS-T1-GE3))
      (libsource (lib Device) (part Q_NMOS_GSD) (description "N-MOSFET transistor, gate/source/drain"))
      (sheetpath (names /) (tstamps /))
      (tstamp 5E481B1D))
    (comp (ref R2)
      (value 4k7)
      (footprint Resistor_SMD:R_0805_2012Metric_Pad1.15x1.40mm_HandSolder)
      (datasheet ~)
      (fields
        (field (name Mnf.) CRCW08054K70JNEA))
      (libsource (lib Device) (part R_Small) (description "Resistor, small symbol"))
      (sheetpath (names /) (tstamps /))
      (tstamp 5E4590E9))
    (comp (ref R1)
      (value 4k7)
      (footprint Resistor_SMD:R_0805_2012Metric_Pad1.15x1.40mm_HandSolder)
      (datasheet ~)
      (fields
        (field (name Mnf.) CRCW08054K70JNEA))
      (libsource (lib Device) (part R_Small) (description "Resistor, small symbol"))
      (sheetpath (names /) (tstamps /))
      (tstamp 5E45A760))
    (comp (ref C1)
      (value 100n)
      (footprint Capacitor_SMD:C_0805_2012Metric_Pad1.15x1.40mm_HandSolder)
      (datasheet ~)
      (fields
        (field (name Mnf.) 08053C104KAT2A))
      (libsource (lib Device) (part C) (description "Unpolarized capacitor"))
      (sheetpath (names /) (tstamps /))
      (tstamp 5E460F04))
    (comp (ref C2)
      (value 1u)
      (footprint Capacitor_SMD:C_0805_2012Metric_Pad1.15x1.40mm_HandSolder)
      (datasheet ~)
      (fields
        (field (name Mnf.) CC0805KKX7R7BB105))
      (libsource (lib Device) (part C) (description "Unpolarized capacitor"))
      (sheetpath (names /) (tstamps /))
      (tstamp 5E461281)))
  (libparts
    (libpart (lib Connector_Generic) (part Conn_02x05_Odd_Even)
      (description "Generic connector, double row, 02x05, odd/even pin numbering scheme (row 1 odd numbers, row 2 even numbers), script generated (kicad-library-utils/schlib/autogen/connector/)")
      (docs ~)
      (footprints
        (fp Connector*:*_2x??_*))
      (fields
        (field (name Reference) J)
        (field (name Value) Conn_02x05_Odd_Even))
      (pins
        (pin (num 1) (name Pin_1) (type passive))
        (pin (num 2) (name Pin_2) (type passive))
        (pin (num 3) (name Pin_3) (type passive))
        (pin (num 4) (name Pin_4) (type passive))
        (pin (num 5) (name Pin_5) (type passive))
        (pin (num 6) (name Pin_6) (type passive))
        (pin (num 7) (name Pin_7) (type passive))
        (pin (num 8) (name Pin_8) (type passive))
        (pin (num 9) (name Pin_9) (type passive))
        (pin (num 10) (name Pin_10) (type passive))))
    (libpart (lib Device) (part C)
      (description "Unpolarized capacitor")
      (docs ~)
      (footprints
        (fp C_*))
      (fields
        (field (name Reference) C)
        (field (name Value) C))
      (pins
        (pin (num 1) (name ~) (type passive))
        (pin (num 2) (name ~) (type passive))))
    (libpart (lib Device) (part Q_NMOS_GSD)
      (description "N-MOSFET transistor, gate/source/drain")
      (docs ~)
      (fields
        (field (name Reference) Q)
        (field (name Value) Q_NMOS_GSD))
      (pins
        (pin (num 1) (name G) (type input))
        (pin (num 2) (name S) (type passive))
        (pin (num 3) (name D) (type passive))))
    (libpart (lib Device) (part R_Small)
      (description "Resistor, small symbol")
      (docs ~)
      (footprints
        (fp R_*))
      (fields
        (field (name Reference) R)
        (field (name Value) R_Small))
      (pins
        (pin (num 1) (name ~) (type passive))
        (pin (num 2) (name ~) (type passive))))
    (libpart (lib lsf-kicad) (part AS5601)
      (description "12-Bit Programmable Contactless Encoder")
      (docs https://ams.com/as5601#tab/features)
      (footprints
        (fp *SOIC*8*))
      (fields
        (field (name Reference) U)
        (field (name Value) AS5601))
      (pins
        (pin (num 1) (name 5V) (type power_in))
        (pin (num 2) (name 3V3) (type power_in))
        (pin (num 3) (name PUSH) (type output))
        (pin (num 4) (name GND) (type power_in))
        (pin (num 5) (name B) (type output))
        (pin (num 6) (name SDA) (type BiDi))
        (pin (num 7) (name SCL) (type input))
        (pin (num 8) (name A) (type output)))))
  (libraries
    (library (logical Connector_Generic)
      (uri /usr/share/kicad/library/Connector_Generic.lib))
    (library (logical Device)
      (uri /usr/share/kicad/library/Device.lib))
    (library (logical lsf-kicad)
      (uri /home/azisi/Documents/lsf-kicad-lib/lsf-kicad.lib)))
  (nets
    (net (code 1) (name GND)
      (node (ref U1) (pin 4))
      (node (ref C2) (pin 2))
      (node (ref C1) (pin 1))
      (node (ref Q1) (pin 2)))
    (net (code 2) (name /SDA)
      (node (ref J1) (pin 10))
      (node (ref R2) (pin 1))
      (node (ref U1) (pin 6))
      (node (ref J1) (pin 9)))
    (net (code 3) (name /SCL)
      (node (ref R1) (pin 1))
      (node (ref U1) (pin 7))
      (node (ref J1) (pin 7))
      (node (ref J1) (pin 8)))
    (net (code 4) (name "Net-(J1-Pad1)")
      (node (ref Q1) (pin 3))
      (node (ref J1) (pin 5))
      (node (ref J1) (pin 3))
      (node (ref J1) (pin 1)))
    (net (code 5) (name "Net-(C2-Pad1)")
      (node (ref U1) (pin 2))
      (node (ref C2) (pin 1)))
    (net (code 6) (name +5V)
      (node (ref U1) (pin 1))
      (node (ref R2) (pin 2))
      (node (ref Q1) (pin 1))
      (node (ref J1) (pin 6))
      (node (ref J1) (pin 4))
      (node (ref J1) (pin 2))
      (node (ref C1) (pin 2))
      (node (ref R1) (pin 2)))
    (net (code 7) (name "Net-(U1-Pad3)")
      (node (ref U1) (pin 3)))
    (net (code 8) (name "Net-(U1-Pad5)")
      (node (ref U1) (pin 5)))
    (net (code 9) (name "Net-(U1-Pad8)")
      (node (ref U1) (pin 8)))))